<svg width="18" height="18" fill="#89b3b6" modified-1="yes" fill-opacity="context-fill-opacity" xmlns="http://www.w3.org/2000/svg">
  <path d="M1 12h3.6l-4 4L2 17.4l4-4V17h2v-7H1zM16 .6l-4 4V1h-2v7h7V6h-3.6l4-4z"/>
</svg>
