<svg viewBox="0 0 16 16" width="16" height="16" fill="#89b3b6" modified-1="yes" fill-opacity="context-fill-opacity" xmlns="http://www.w3.org/2000/svg">
  <path d="M7.625 1.75c3.446 0 6.25 2.804 6.25 6.25s-2.804 6.25-6.25 6.25-6.25-2.804-6.25-6.25 2.804-6.25 6.25-6.25m0-1.25a7.5 7.5 0 1 0 0 15 7.5 7.5 0 0 0 0-15z"/>
  <path d="M4.661 10.424c.11 0 .217-.029.312-.084l3-1.732.312-.542V4.625A.628.628 0 007.66 4a.628.628 0 00-.625.625v3.081L4.347 9.258a.627.627 0 00.314 1.166z"/>
</svg>