<!-- This Source Code Form is subject to the terms of the Mozilla Public
   - License, v. 2.0. If a copy of the MPL was not distributed with this
   - file, You can obtain one at http://mozilla.org/MPL/2.0/. -->
<svg data-name="icon" xmlns="http://www.w3.org/2000/svg"  width="16" height="16" viewBox="0 0 16 16">
  <path fill="#89b3b6" modified-1="yes" fill-opacity="context-fill-opacity" d="M12 7l-4 4a4 4 0 0 0 4-4z"/>
  <path fill="#89b3b6" modified-1="yes" fill-opacity="context-fill-opacity" d="M15.66 7.71a7.78 7.78 0 0 0-1.55-2.82L12.7 6.3a5.9 5.9 0 0 1 1 1.7A6 6 0 0 1 8 12a7.28 7.28 0 0 1-.93-.07l-1.64 1.64A7.92 7.92 0 0 0 8 14a8 8 0 0 0 7.66-5.71 1 1 0 0 0 0-.58zM14.71 1.29a1 1 0 0 0-1.42 0l-1.63 1.64A7.8 7.8 0 0 0 8 2a8 8 0 0 0-7.66 5.71 1 1 0 0 0 0 .58 7.8 7.8 0 0 0 2.34 3.62l-1.39 1.38a1 1 0 0 0 0 1.42 1 1 0 0 0 1.42 0l12-12a1 1 0 0 0 0-1.42zM8.5 5a1.43 1.43 0 0 1 .82.26L7.26 7.32A1.43 1.43 0 0 1 7 6.5 1.5 1.5 0 0 1 8.5 5zM2.35 8a6 6 0 0 1 2.11-2.82A3.91 3.91 0 0 0 5 9.61l-.9.9A5.91 5.91 0 0 1 2.35 8z"/>
  <path fill="#89b3b6" modified-1="yes" fill-opacity="context-fill-opacity" d="M12 7l-4 4a4 4 0 0 0 4-4z"/>
  <path fill="#89b3b6" modified-1="yes" fill-opacity="context-fill-opacity" d="M16 7.7a8.06 8.06 0 0 0-1.72-2.94l-1.45 1.41A5.91 5.91 0 0 1 13.94 8 6.33 6.33 0 0 1 8 12a7.28 7.28 0 0 1-.93-.07l-1.66 1.66A8.56 8.56 0 0 0 8 14a8.34 8.34 0 0 0 8-5.7 1.22 1.22 0 0 0 0-.6zM14.71 1.29a1 1 0 0 0-1.42 0L11.7 2.88A8.43 8.43 0 0 0 8 2a8.34 8.34 0 0 0-8 5.7 1.22 1.22 0 0 0 0 .6A7.87 7.87 0 0 0 2.58 12l-1.29 1.29a1 1 0 0 0 0 1.42 1 1 0 0 0 1.42 0l12-12a1 1 0 0 0 0-1.42zM8.5 5a1.43 1.43 0 0 1 .82.26L7.26 7.32A1.43 1.43 0 0 1 7 6.5 1.5 1.5 0 0 1 8.5 5zM2.06 8a6 6 0 0 1 2.49-3A4 4 0 0 0 4 7a4 4 0 0 0 1 2.61l-1 1A5.94 5.94 0 0 1 2.06 8z"/>
</svg>
